{"count": 18, "next": "http://127.0.0.1:8000/app1/projects/?limit=10&offset=10&order_by=titlee", "previous": null, "results": [{"id": 12, "title": "pr 12", "medium": "pr 12 med", "owner": {"username": "Guneeti", "profile_picture": "http://127.0.0.1:8000/profile_pics/20180120_151223_rFjzu2S.jpg"}, "approx_completion_date": "2025-08-15", "roles": [{"role_type": "MP", "collab_type": "P"}, {"role_type": "PR", "collab_type": "P"}, {"role_type": "M", "collab_type": "P"}]}, {"id": 81, "title": "Kanika 2 title", "medium": "Kanika  2 medium", "owner": {"username": "Kanika", "profile_picture": "http://127.0.0.1:8000/profile_pics/20180928_131819_he8QU8l.jpg"}, "approx_completion_date": "2025-03-05", "roles": [{"role_type": "M", "collab_type": "U"}, {"role_type": "WR", "collab_type": "U"}, {"role_type": "PR", "collab_type": "P"}]}, {"id": 79, "title": "Nitish 2 title", "medium": "Nitish  2 medium", "owner": {"username": "Nitish", "profile_picture": null}, "approx_completion_date": "2024-12-26", "roles": [{"role_type": "M", "collab_type": "U"}, {"role_type": "WR", "collab_type": "U"}, {"role_type": "PR", "collab_type": "P"}]}, {"id": 84, "title": "Pradeep 1 title", "medium": "Pradeep  1 medium", "owner": {"username": "Pradeep", "profile_picture": null}, "approx_completion_date": "2024-11-22", "roles": [{"role_type": "M", "collab_type": "U"}, {"role_type": "WR", "collab_type": "U"}, {"role_type": "PR", "collab_type": "P"}]}, {"id": 2, "title": "proj 2", "medium": "pr2 medium", "owner": {"username": "Kanika", "profile_picture": "http://127.0.0.1:8000/profile_pics/20180928_131819_he8QU8l.jpg"}, "approx_completion_date": "2024-08-30", "roles": [{"role_type": "INS", "collab_type": "P"}, {"role_type": "PR", "collab_type": "C"}]}, {"id": 11, "title": "pr 11", "medium": "proj eleven med", "owner": {"username": "Pradeep", "profile_picture": null}, "approx_completion_date": "2024-08-21", "roles": []}, {"id": 8, "title": "pr 8 title", "medium": "pr 8 medium", "owner": {"username": "Nitish", "profile_picture": null}, "approx_completion_date": "2024-07-24", "roles": []}, {"id": 10, "title": "pr 10", "medium": "pr10 medium", "owner": {"username": "Pradeep", "profile_picture": null}, "approx_completion_date": "2024-07-24", "roles": []}, {"id": 37, "title": "p21 new TITLE", "medium": "p21  newmedium", "owner": {"username": "Nitish", "profile_picture": null}, "approx_completion_date": "2024-07-18", "roles": [{"role_type": "M", "collab_type": "U"}, {"role_type": "WDES", "collab_type": "U"}, {"role_type": "WDEV", "collab_type": "P"}]}, {"id": 78, "title": "Kanika 1 title", "medium": "Kanika  1 medium", "owner": {"username": "Kanika", "profile_picture": "http://127.0.0.1:8000/profile_pics/20180928_131819_he8QU8l.jpg"}, "approx_completion_date": "2024-07-17", "roles": [{"role_type": "M", "collab_type": "U"}, {"role_type": "WR", "collab_type": "U"}, {"role_type": "PR", "collab_type": "P"}]}]}